Take-home Exercise 2 : Mini-Challenge 3
…
This ensured the graph contained meaningful entities and properly indexed connections between them.

To understand the diversity of entities in the knowledge graph, we tabulated the counts of node type and sub_type:

Click to view code

graph_tbl %>%
  activate(nodes) %>%
  as_tibble() %>%
  count(type, sub_type) 

# A tibble: 25 × 3
   type   sub_type          n
   <chr>  <chr>         <int>
 1 Entity Group             5
 2 Entity Location         29
 3 Entity Organization      5
 4 Entity Person           18
 5 Entity Vessel           15
 6 Event  Assessment       36
 7 Event  Collaborate      25
 8 Event  Communication   584
 9 Event  Criticize         1
10 Event  Enforcement      21
# ℹ 15 more rows
…
